{
    "auth": "gAAAAABe-Ko0jGkyVfLXtPHSRl8KT8VwXveNJspKA50OkTiKvXE8TINRSIECJtgDtS1qvl3Iug8S3QRc5BE3ZrioqsWo4CqNzVnSF5aclWvIctRWQwAV5gY=",
    "key": "",
    "device": {
        "3f3057df-24eb-4615-3280-b1c40f29287f": {
            "sdk": "24",
            "manufacturer": "SonyEricsson",
            "device": "LT15i",
            "model": "LT15i",
            "product": "LT15i_1249-5141",
            "hardware": "",
            "board": "79dibxct",
            "brand": "SonyEricsson"
        }
    },
    "window.location.replace(https://cryptobrowser.site/mobile/android/+window.location.search": null,
    "x_state": "gAAAAABe-LQ3TJfNQppvUjW91XAKodzM51MPll5JOcwoaj8kN1_73VTJWrzGMg9meImWyS6Nt_2DrUU5YBwkXUMCbxDqr3zOVvDmuodCaDVGLW2hfDlu8fvsSiYBRkwwaG1jvW65NXGU"
}